<?xml version="1.0" encoding="UTF-8"?>
<svg id="svg5" width="100mm" height="100mm" version="1.1" viewBox="0 0 100 100" xmlns="http://www.w3.org/2000/svg">
<g id="layer1">
<text id="text4579" x="62.701752" y="45.047333" font-family="Arial" font-size="4.303px" letter-spacing="0px" stroke-width="5.0048" text-align="center" text-anchor="middle" word-spacing="0px" style="line-height:1.25" xml:space="preserve"><tspan id="tspan4577" x="62.701752" y="45.047333" stroke-width="5.0048"/></text>
<g id="text298" transform="matrix(1.5986 0 0 1.7794 -66.445 -4.4)" stroke-width=".15688" aria-label="✔">
<path id="path500" d="m56.538 28.191q1.574 0 2.3812 2.583 1.6143 4.843 2.3004 4.843 0.52466 0 1.0897-0.80718 11.341-16.668 20.987-23.731 4.0762-2.9865 7.9507-2.9865 5.1256 0 6.1749 0.32287 0.44395 0.12108 0.44395 1.009 0 0.72646-0.92825 1.8161-25.951 29.785-30.915 38.744-1.6951 3.0673-7.8296 3.0673-2.0179 0-4.2377-1.0493-0.92825-0.4843-3.2287-6.1749-2.9058-7.1839-2.9058-12.592 0-1.9776 2.8251-3.2691 3.8744-1.7758 5.8117-1.7758 0 0 0.08072 0z" stroke-width=".15688"/>
</g>
</g>
</svg>
