<?xml version="1.0" encoding="UTF-8"?>
<svg id="svg5" width="100mm" height="100mm" version="1.1" viewBox="0 0 100 100" xmlns="http://www.w3.org/2000/svg">
<g id="layer1">
<text id="text4579" x="62.701752" y="45.047333" font-family="Arial" font-size="4.303px" letter-spacing="0px" stroke-width="5.0048" text-align="center" text-anchor="middle" word-spacing="0px" style="line-height:1.25" xml:space="preserve"><tspan id="tspan4577" x="62.701752" y="45.047333" stroke-width="5.0048"/></text>
<path id="path20" d="m24.349 87.63v-2.3704h9.124v-8.8889h11.976v-14.202l-2.515-1.5745c-1.3833-0.86577-3.8286-3.2302-5.4342-5.254l-2.9192-3.6796-4.1014-0.31642c-2.9853-0.23044-4.8347-0.73184-6.7963-1.8427-3.9218-2.2211-7.9663-7.2596-10.085-12.563-1.944-4.8668-3.582-13.435-3.5919-18.789l-0.006346-3.4074h15.808v-4.7408h48.383v4.7407h15.808l-0.0063 3.4074c-0.01 5.3538-1.648 13.922-3.5919 18.789-2.1185 5.3038-6.163 10.342-10.085 12.563-1.9615 1.1109-3.8109 1.6123-6.7963 1.8427l-4.1014 0.31642-2.9192 3.6796c-1.6056 2.0238-4.051 4.3881-5.4342 5.254l-2.515 1.5745v14.202h11.976v8.8889h9.124v4.7407h-51.302v-2.3704zm6.0274-45.588c-1.4193-3.4647-3.3973-12.332-3.876-17.375l-0.3234-3.4074h-5.4538c-6.131 0-5.7918-0.36561-4.7466 5.1165 2.0151 10.57 6.8083 17.33 13.147 18.541 1.2065 0.23045 2.2622 0.36169 2.3457 0.29162 0.08278-0.07027-0.40815-1.4949-1.0928-3.1662zm44.771 1.1448c3.952-2.4941 7.3872-9 8.8762-16.811 1.0451-5.4822 1.3843-5.1165-4.7467-5.1165h-5.4538l-0.3234 3.4074c-0.47456 5.0002-2.4524 13.9-3.8438 17.297-0.66691 1.6282-1.2126 3.066-1.2126 3.1953 0 0.53633 5.1123-0.96746 6.704-1.9719z" stroke-width=".5328"/>
</g>
</svg>
