<?xml version="1.0" encoding="UTF-8"?>
<svg id="svg5" width="100mm" height="100mm" version="1.1" viewBox="0 0 100 100" xmlns="http://www.w3.org/2000/svg">
<g id="layer1" stroke-linecap="round" stroke-linejoin="round">
<text id="text4579" transform="scale(1.0006 .99943)" x="63.028652" y="43.395321" font-family="Arial" font-size="4.4234px" letter-spacing="0px" stroke-width="5.0048" text-align="center" text-anchor="middle" word-spacing="0px" style="line-height:1.25" xml:space="preserve"><tspan id="tspan4577" x="63.028652" y="43.395321" stroke-linecap="round" stroke-linejoin="round" stroke-width="5.0048"/></text>
<path id="path7588" d="m20.171 25.856v61.644h59.657v-61.644" fill="none" stroke="#000" stroke-width="5"/>
<path id="path7590" d="m14 26.943h72" fill="none" stroke="#000" stroke-width="8"/>
<path id="path7592" d="m34.571 25.856v-13.356h30.857v13.356" fill="none" stroke="#000" stroke-width="5"/>
<path id="path7594" d="m50 43.322v30.822" fill="none" stroke="#000" stroke-width="8"/>
<path id="path7596" d="m34.571 43.322v30.822" fill="none" stroke="#000" stroke-width="8"/>
<path id="path7598" d="m65.429 43.322v30.822" fill="none" stroke="#000" stroke-width="8"/>
</g>
</svg>
