<?xml version="1.0" encoding="UTF-8"?>
<svg id="svg5" width="100mm" height="100mm" version="1.1" viewBox="0 0 100 100" xmlns="http://www.w3.org/2000/svg">
<g id="layer1" fill="none" stroke="#000" stroke-linecap="round" stroke-linejoin="round">
<path id="path123" d="m13.704 85.821h72.062" stroke-width="8"/>
<ellipse id="path1060" cx="30.599" cy="75.215" rx="5.3528" ry="5.3528" stroke-width="5"/>
<ellipse id="ellipse1358" cx="66.731" cy="75.215" rx="5.3528" ry="5.3528" stroke-width="5"/>
<rect id="rect1382" x="21.811" y="41.92" width="53.984" height="23.293" rx="2.3554e-5" ry="23.293" stroke-width="8"/>
<path id="path2518" d="m28.412 41.588v-27.883" stroke-width="5"/>
<path id="path2572" d="m30 13.942h20" stroke-width="8"/>
</g>
</svg>
