<?xml version="1.0" encoding="UTF-8"?>
<svg width="37.795" height="37.795" xmlns="http://www.w3.org/2000/svg">
<path d="M10.627 33.341a3.529 3.529 0 0 1-3.174-3.034c-.026-.189-.029-.944-.024-6.463l.006-6.248.043-.193a3.81 3.81 0 0 1 .432-1.128 3.53 3.53 0 0 1 2.716-1.716c.158-.015 2.71-.02 8.704-.015l8.48.007.214.042c1.611.318 2.758 1.578 2.9 3.188.027.305.027 12.035 0 12.34-.042.472-.152.86-.368 1.292a3.08 3.08 0 0 1-.66.902 3.08 3.08 0 0 1-.902.66c-.436.218-.83.329-1.304.368-.284.024-16.796.022-17.063-.002zm8.955-4.761a1.19 1.19 0 0 0 .7-.7l.057-.135.005-1.469.006-1.469.156-.109c.345-.242.607-.546.784-.91a2.268 2.268 0 0 0 .166-1.592c-.22-.87-.905-1.527-1.81-1.731a3.109 3.109 0 0 0-.923-.001c-.48.102-.871.314-1.208.653a2.265 2.265 0 0 0-.682 1.658c0 .552.17 1.027.523 1.468a2.5 2.5 0 0 0 .531.48l.113.072v1.397c.001 1.556 0 1.548.13 1.812.101.205.31.415.515.517.213.105.317.126.578.12.191-.006.242-.014.359-.061zm-8.62-16.365c.01-1.21.02-1.394.122-2.099.138-.945.37-1.796.709-2.588.666-1.557 1.687-2.756 3.054-3.586 2.27-1.379 5.417-1.544 7.893-.415 1.35.615 2.426 1.573 3.228 2.875.552.894.969 1.988 1.2 3.15.185.924.244 1.656.244 3.003v.8H23.88v-.839c0-.852-.014-1.193-.069-1.664-.144-1.242-.547-2.324-1.143-3.076a4.905 4.905 0 0 0-.642-.64c-.757-.594-1.7-.85-3.023-.82a5.115 5.115 0 0 0-1.23.15 3.93 3.93 0 0 0-1.286.578 5.354 5.354 0 0 0-.867.859c-.668.9-1.045 2.108-1.132 3.616-.01.19-.02.682-.02 1.092v.745h-3.516z"/>
</svg>
