<?xml version="1.0" encoding="UTF-8" standalone="no"?>
<!-- Created with Inkscape (http://www.inkscape.org/) -->

<svg
   width="100mm"
   height="100mm"
   viewBox="0 0 100 100"
   version="1.1"
   id="svg5"
   xml:space="preserve"
   inkscape:version="1.2.2 (b0a8486541, 2022-12-01)"
   sodipodi:docname="mintapps-logo2.svg"
   xmlns:inkscape="http://www.inkscape.org/namespaces/inkscape"
   xmlns:sodipodi="http://sodipodi.sourceforge.net/DTD/sodipodi-0.dtd"
   xmlns="http://www.w3.org/2000/svg"
   xmlns:svg="http://www.w3.org/2000/svg"><sodipodi:namedview
     id="namedview7"
     pagecolor="#ffffff"
     bordercolor="#666666"
     borderopacity="1.0"
     inkscape:showpageshadow="2"
     inkscape:pageopacity="0.0"
     inkscape:pagecheckerboard="0"
     inkscape:deskcolor="#d1d1d1"
     inkscape:document-units="mm"
     showgrid="true"
     inkscape:zoom="2.3786088"
     inkscape:cx="242.78898"
     inkscape:cy="323.29822"
     inkscape:window-width="1920"
     inkscape:window-height="1011"
     inkscape:window-x="0"
     inkscape:window-y="32"
     inkscape:window-maximized="1"
     inkscape:current-layer="layer1"><inkscape:grid
       type="xygrid"
       id="grid447" /></sodipodi:namedview><defs
     id="defs2" /><g
     inkscape:label="Ebene 1"
     inkscape:groupmode="layer"
     id="layer1"><rect
       style="fill:#f9f9f9;fill-opacity:1;stroke:#0060a0;stroke-width:5;stroke-linecap:round;stroke-linejoin:round;stroke-dasharray:none;stroke-opacity:1"
       id="rect10595"
       width="95"
       height="95"
       x="2.5"
       y="2.5"
       ry="0.7568959" /><path
       style="fill:#00a060;fill-opacity:1;stroke:#ffffff;stroke-width:3.99999;stroke-linecap:round;stroke-linejoin:round;stroke-dasharray:none;stroke-opacity:1"
       d="m 51.399991,39.499753 c 2,0 18.000002,-20.999999 20.000002,-22.999999 1.999997,-2 11.999997,-5 11.999997,5 v 45.000001 c 0,0 -2.000001,2.999997 -6.999999,2.999997 -4.999998,0 -7.000002,-2.999997 -7.000002,-2.999997 V 41.499753 c 0,0 -15.999998,18.000003 -17.999995,18.000003 -2,0 -18,-18.000003 -18,-18.000003 v 25.000002 c 0,0 -1,3.999997 -6.999999,3.999997 -6,0 -8,-3.999997 -8,-3.999997 V 21.499754 c 0,-10 11,-7 13,-5 2,2 17.999999,22.999999 19.999996,22.999999 z"
       id="path6165"
       sodipodi:nodetypes="ccccsccsccscccc" /><path
       style="fill:none;fill-opacity:1;stroke:#000000;stroke-width:3.99999;stroke-linecap:round;stroke-linejoin:round;stroke-dasharray:none;stroke-opacity:1"
       d="m 50,38 c 2,0 18.000001,-21 20.000002,-23 1.999997,-2 11.999996,-5 11.999996,5 v 45 c 0,0 -2,2.999998 -6.999998,2.999998 C 70.000002,67.999998 67.999997,65 67.999997,65 V 39.999999 c 0,0 -15.999997,18.000003 -17.999997,18.000003 -2,0 -18.000001,-18.000003 -18.000001,-18.000003 V 65 c 0,0 -1,3.999998 -6.999999,3.999998 C 19,68.999998 17,65 17,65 V 20 c 0,-10 11,-7 13,-5 2,2 18,23 20,23 z"
       id="path3985"
       sodipodi:nodetypes="ccccsccsccscccc" /><text
       xml:space="preserve"
       style="font-size:26.2812px;line-height:1;font-family:Arial;-inkscape-font-specification:Arial;stroke:#000000;stroke-width:0.734003;stroke-linecap:round;stroke-linejoin:round;stroke-dasharray:none;stroke-opacity:1"
       x="15.298322"
       y="92.646156"
       id="text13141"
       transform="scale(1.0070234,0.99302555)"><tspan
         sodipodi:role="line"
         id="tspan13139"
         style="stroke:#000000;stroke-width:0.733996;stroke-linecap:round;stroke-linejoin:round;stroke-dasharray:none;stroke-opacity:1"
         x="15.298322"
         y="92.646156">APPS</tspan></text></g></svg>
