<?xml version="1.0" encoding="UTF-8"?>
<svg id="svg5" width="100mm" height="100mm" version="1.1" viewBox="0 0 100 100" xmlns="http://www.w3.org/2000/svg">
<g id="layer1" stroke="#000">
<path id="path5340" d="m87.239 22.5a9.7391 9.7391 0 0 1-9.7377 9.7391 9.7391 9.7391 0 0 1-9.7405-9.7363 9.7391 9.7391 0 0 1 9.735-9.7419 9.7391 9.7391 0 0 1 9.7433 9.7336" stroke-width="5.5218"/>
<path id="path5342" d="m87.239 77.5a9.7391 9.7391 0 0 1-9.7377 9.7391 9.7391 9.7391 0 0 1-9.7405-9.7363 9.7391 9.7391 0 0 1 9.735-9.7419 9.7391 9.7391 0 0 1 9.7433 9.7336" stroke-width="5.5218"/>
<path id="path5344" d="m32.239 50a9.7391 9.7391 0 0 1-9.7377 9.7391 9.7391 9.7391 0 0 1-9.7405-9.7363 9.7391 9.7391 0 0 1 9.7349-9.7419 9.7391 9.7391 0 0 1 9.7433 9.7336" stroke-width="5.5218"/>
<path id="path5346" d="m80 20-60 30 60 30" fill="none" stroke-width="8"/>
</g>
</svg>
