<?xml version="1.0" encoding="UTF-8"?>
<svg id="svg5" width="100mm" height="100mm" version="1.1" viewBox="0 0 100 100" xmlns="http://www.w3.org/2000/svg">
<g id="layer1">
<ellipse id="path190" cx="30" cy="49.379" rx="12.504" ry="12.5"/>
<path id="path261" d="m11 90s-0.95714-0.08893-1-1v-14s0-15 20-15 20 15 20 15v14c0 1-0.55827 1-1.0389 1-9.9611 2e-6 -37.961 2e-6 -37.961 2e-6z"/>
<path id="path2240" d="m51 14h35" fill="none" stroke="#000" stroke-linecap="round" stroke-width="8"/>
<path id="path2242" d="m51 25.642h35" fill="none" stroke="#000" stroke-linecap="round" stroke-width="8"/>
<path id="path2244" d="m51 37.283h35" fill="none" stroke="#000" stroke-linecap="round" stroke-width="8"/>
</g>
</svg>
