<?xml version="1.0" encoding="UTF-8"?>
<svg id="svg5" width="100mm" height="100mm" version="1.1" viewBox="0 0 100 100" xmlns="http://www.w3.org/2000/svg">
<g id="layer1" fill="none" stroke="#000" stroke-linejoin="round" stroke-width="4.977">
<rect id="rect378" transform="matrix(.70798 -.70623 .70798 .70623 0 0)" x="19.328" y="59.5" width="14.944" height="24.423" stroke-linecap="round"/>
<rect id="rect482" transform="matrix(.70798 -.70623 .70798 .70623 0 0)" x="-33.782" y="59.492" width="14.944" height="24.423" stroke-linecap="round"/>
<rect id="rect484" transform="matrix(-.70798 -.70623 .70798 -.70623 0 0)" x="-105.45" y="-11.9" width="14.944" height="24.423" stroke-linecap="round"/>
<rect id="rect486" transform="matrix(-.70798 -.70623 .70798 -.70623 0 0)" x="-51.681" y="-12.097" width="14.944" height="24.423" stroke-linecap="round"/>
<path id="path532" d="m60.97 23.855-11.395-11.367-9.5146 9.4911"/>
<path id="path534" d="m22.845 39.398-10.357 10.331 10.467 10.441"/>
<path id="path536" d="m41.936 79.464 8.0678 8.0478 9.2927-9.2697"/>
<path id="path538" d="m79.252 41.536 8.2597 8.2393-8.75 8.7284"/>
</g>
</svg>
