<?xml version="1.0" encoding="UTF-8"?>
<svg viewBox="0 0 16 10" xmlns="http://www.w3.org/2000/svg">
<rect width="16" height="10" fill="#006aa7"/>
<rect x="5" width="2" height="10" fill="#fecc00"/>
<rect y="4" width="16" height="2" fill="#fecc00"/>
</svg>
